Elemento generado,Elemento origen,Candidatos,Excluidos,Origen (candidatos - excluidos),Clasificados,Positivos (transformados - falsos positivos),Falsos positivos,Negativos,Falsos negativos
Relation,Entity o Relationship,4,1,3,4,3,1,0,0
Attribute,Attribute,4,0,4,4,4,0,0,0
